{
  "animateLoading": true,
  "borderRadius": "{{appsmith.theme.borderRadius.appBorderRadius}}",
  "bottomRow": 103,
  "boxShadow": "none",
  "buttonColor": "{{appsmith.theme.colors.primaryColor}}",
  "buttonVariant": "PRIMARY",
  "disabledWhenInvalid": false,
  "displayName": "Button",
  "dynamicBindingPathList": [
    {
      "key": "buttonColor"
    },
    {
      "key": "borderRadius"
    },
    {
      "key": "isDisabled"
    }
  ],
  "dynamicPropertyPathList": [
    {
      "key": "onClick"
    },
    {
      "key": "isDisabled"
    }
  ],
  "dynamicTriggerPathList": [
    {
      "key": "onClick"
    }
  ],
  "hideCard": false,
  "iconSVG": "https://appcdn.appsmith.com/static/media/icon.7a418b9e1899a550d7e8f33b48cbde12.svg",
  "isDefaultClickDisabled": true,
  "isDeprecated": false,
  "isDisabled": "{{\n EventHandlers.isPrevDisabled()\n}}",
  "isLoading": false,
  "isVisible": true,
  "key": "m7qsi9bids",
  "leftColumn": 9,
  "minWidth": 120,
  "mobileBottomRow": 81,
  "mobileLeftColumn": 10,
  "mobileRightColumn": 26,
  "mobileTopRow": 77,
  "needsErrorInfo": false,
  "onCanvasUI": {
    "disableParentSelection": false,
    "focusBGCSSVar": "--on-canvas-ui-widget-focus",
    "focusColorCSSVar": "--on-canvas-ui-widget-selection",
    "selectionBGCSSVar": "--on-canvas-ui-widget-selection",
    "selectionColorCSSVar": "--on-canvas-ui-widget-focus"
  },
  "onClick": "{{ EventHandlers.handlePrevClick()\n}}",
  "originalBottomRow": 104,
  "originalTopRow": 100,
  "parentColumnSpace": 22.421875,
  "parentId": "0",
  "parentRowSpace": 10,
  "placement": "CENTER",
  "recaptchaType": "V3",
  "renderMode": "CANVAS",
  "resetFormOnClick": false,
  "responsiveBehavior": "hug",
  "rightColumn": 18,
  "searchTags": [
    "click",
    "submit"
  ],
  "tags": [
    "Buttons"
  ],
  "text": "Назад",
  "thumbnailSVG": "https://appcdn.appsmith.com/static/media/thumbnail.a348658e996feaad96cadc30d99374ff.svg",
  "topRow": 99,
  "type": "BUTTON_WIDGET",
  "version": 1,
  "widgetId": "snk5w4mu0j",
  "widgetName": "Button2"
}