{
  "animateLoading": true,
  "borderRadius": "{{appsmith.theme.borderRadius.appBorderRadius}}",
  "bottomRow": 8,
  "boxShadow": "none",
  "buttonColor": "{{appsmith.theme.colors.primaryColor}}",
  "buttonVariant": "PRIMARY",
  "disabledWhenInvalid": false,
  "displayName": "Button",
  "dynamicBindingPathList": [
    {
      "key": "buttonColor"
    },
    {
      "key": "borderRadius"
    },
    {
      "key": "isDisabled"
    }
  ],
  "dynamicPropertyPathList": [
    {
      "key": "isDisabled"
    }
  ],
  "dynamicTriggerPathList": [
    {
      "key": "onClick"
    }
  ],
  "hideCard": false,
  "iconSVG": "https://appcdn.appsmith.com/static/media/icon.7a418b9e1899a550d7e8f33b48cbde12.svg",
  "isDefaultClickDisabled": true,
  "isDeprecated": false,
  "isDisabled": "{{\nappsmith.store.isVideoInDatabase || !Array.isArray(appsmith.store.new_fragments) || appsmith.store.new_fragments.length == 0\n}}",
  "isLoading": false,
  "isVisible": true,
  "key": "ykf4r8c22n",
  "leftColumn": 43,
  "minWidth": 120,
  "mobileBottomRow": 20,
  "mobileLeftColumn": 43,
  "mobileRightColumn": 59,
  "mobileTopRow": 16,
  "needsErrorInfo": false,
  "onCanvasUI": {
    "disableParentSelection": false,
    "focusBGCSSVar": "--on-canvas-ui-widget-focus",
    "focusColorCSSVar": "--on-canvas-ui-widget-selection",
    "selectionBGCSSVar": "--on-canvas-ui-widget-selection",
    "selectionColorCSSVar": "--on-canvas-ui-widget-focus"
  },
  "onClick": "{{AddVideoFragments.run({\n  \"video\": {\n    \"video_id\": appsmith.store.current_video_id,\n    \"title\": \"YouTube Video\"\n  },\n  \"fragments\": VideoUtils.removeWatchField(appsmith.store.new_fragments)\n}).then(() => {\n  showAlert('The video fragments have been successfully saved.', 'success');\n  storeValue('isVideoInDatabase', true);\n  storeValue('editable_fragments', appsmith.store.new_fragments);\n  storeValue('new_fragments', []);\n}).catch(() => {\n  showAlert('Error saving video fragments.', 'error');\n});}}",
  "parentColumnSpace": 17.53125,
  "parentId": "0",
  "parentRowSpace": 10,
  "placement": "CENTER",
  "recaptchaType": "V3",
  "renderMode": "CANVAS",
  "resetFormOnClick": false,
  "responsiveBehavior": "hug",
  "rightColumn": 52,
  "searchTags": [
    "click",
    "submit"
  ],
  "tags": [
    "Buttons"
  ],
  "text": "Сохранить",
  "thumbnailSVG": "https://appcdn.appsmith.com/static/media/thumbnail.a348658e996feaad96cadc30d99374ff.svg",
  "tooltip": "",
  "topRow": 4,
  "type": "BUTTON_WIDGET",
  "version": 1,
  "widgetId": "uiiuswxkr7",
  "widgetName": "Button1CopyCopy"
}