{
  "gitSyncId": "667a90db9b4a5476aba8389f_614f3a0b-516d-410f-a742-b532efea1d2e",
  "id": "Главная_VideoUtils",
  "unpublishedCollection": {
    "name": "VideoUtils",
    "pageId": "Главная",
    "pluginId": "js-plugin",
    "pluginType": "JS",
    "variables": []
  }
}