{
  "accentColor": "{{appsmith.theme.colors.primaryColor}}",
  "animateLoading": true,
  "borderColor": "#E0DEDE",
  "borderRadius": "{{appsmith.theme.borderRadius.appBorderRadius}}",
  "borderWidth": "1",
  "bottomRow": 72,
  "boxShadow": "{{appsmith.theme.boxShadow.appBoxShadow}}",
  "canFreezeColumn": true,
  "childStylesheet": {
    "button": {
      "borderRadius": "{{appsmith.theme.borderRadius.appBorderRadius}}",
      "boxShadow": "none",
      "buttonColor": "{{appsmith.theme.colors.primaryColor}}"
    },
    "editActions": {
      "discardBorderRadius": "{{appsmith.theme.borderRadius.appBorderRadius}}",
      "discardButtonColor": "{{appsmith.theme.colors.primaryColor}}",
      "saveBorderRadius": "{{appsmith.theme.borderRadius.appBorderRadius}}",
      "saveButtonColor": "{{appsmith.theme.colors.primaryColor}}"
    },
    "iconButton": {
      "borderRadius": "{{appsmith.theme.borderRadius.appBorderRadius}}",
      "boxShadow": "none",
      "buttonColor": "{{appsmith.theme.colors.primaryColor}}"
    },
    "menuButton": {
      "borderRadius": "{{appsmith.theme.borderRadius.appBorderRadius}}",
      "boxShadow": "none",
      "menuColor": "{{appsmith.theme.colors.primaryColor}}"
    }
  },
  "columnOrder": [
    "customColumn2",
    "video_id",
    "title",
    "fragmentsAggregate",
    "customColumn1"
  ],
  "columnUpdatedAt": 1720165010224,
  "columnWidthMap": {
    "customColumn2": 62,
    "fragmentsAggregate": 231,
    "title": 214,
    "video_id": 372
  },
  "defaultPageSize": 0,
  "defaultSelectedRowIndex": 0,
  "defaultSelectedRowIndices": [
    0
  ],
  "delimiter": ",",
  "displayName": "Table",
  "dynamicBindingPathList": [
    {
      "key": "accentColor"
    },
    {
      "key": "borderRadius"
    },
    {
      "key": "boxShadow"
    },
    {
      "key": "tableData"
    },
    {
      "key": "primaryColumns.title.computedValue"
    },
    {
      "key": "primaryColumns.video_id.computedValue"
    },
    {
      "key": "primaryColumns.fragmentsAggregate.computedValue"
    },
    {
      "key": "primaryColumns.customColumn1.computedValue"
    },
    {
      "key": "primaryColumns.customColumn2.computedValue"
    }
  ],
  "dynamicPropertyPathList": [
    {
      "key": "tableData"
    }
  ],
  "dynamicTriggerPathList": [],
  "enableClientSideSearch": true,
  "flexVerticalAlignment": "start",
  "hideCard": false,
  "horizontalAlignment": "LEFT",
  "iconSVG": "/static/media/icon.cf625df24d42d0de4d06cba559b3c327.svg",
  "inlineEditingSaveOption": "ROW_LEVEL",
  "isDeprecated": false,
  "isLoading": false,
  "isSortable": true,
  "isVisible": true,
  "isVisibleDownload": true,
  "isVisibleFilters": true,
  "isVisiblePagination": true,
  "isVisibleSearch": true,
  "key": "5tvlry0chr",
  "label": "Data",
  "leftColumn": 1,
  "minWidth": 450,
  "mobileBottomRow": 42,
  "mobileLeftColumn": 0,
  "mobileRightColumn": 32,
  "mobileTopRow": 14,
  "needsErrorInfo": false,
  "needsHeightForContent": true,
  "onCanvasUI": {
    "disableParentSelection": false,
    "focusBGCSSVar": "--on-canvas-ui-widget-focus",
    "focusColorCSSVar": "--on-canvas-ui-widget-selection",
    "selectionBGCSSVar": "--on-canvas-ui-widget-selection",
    "selectionColorCSSVar": "--on-canvas-ui-widget-focus"
  },
  "originalBottomRow": 73,
  "originalTopRow": 9,
  "parentColumnSpace": 17.3125,
  "parentId": "0",
  "parentRowSpace": 10,
  "primaryColumns": {
    "customColumn1": {
      "alias": "Статус",
      "allowCellWrapping": false,
      "allowSameOptionsInNewRow": true,
      "buttonStyle": "rgb(3, 179, 101)",
      "columnType": "text",
      "computedValue": "{{Table1.processedTableData.map((currentRow, currentIndex) => ( \"Добавлено\"))}}",
      "currencyCode": "USD",
      "decimals": 0,
      "enableFilter": true,
      "enableSort": true,
      "horizontalAlignment": "LEFT",
      "id": "customColumn1",
      "index": 3,
      "isCellEditable": false,
      "isCellVisible": true,
      "isDerived": true,
      "isDisabled": false,
      "isDiscardVisible": true,
      "isEditable": false,
      "isSaveVisible": true,
      "isVisible": true,
      "label": "Статус",
      "labelColor": "#FFFFFF",
      "notation": "standard",
      "originalId": "customColumn1",
      "sticky": "",
      "textSize": "0.875rem",
      "thousandSeparator": true,
      "validation": {},
      "verticalAlignment": "CENTER",
      "width": 150
    },
    "customColumn2": {
      "alias": "#",
      "allowCellWrapping": false,
      "allowSameOptionsInNewRow": true,
      "buttonStyle": "rgb(3, 179, 101)",
      "columnType": "text",
      "computedValue": "{{Table1.processedTableData.map((currentRow, currentIndex) => ( currentIndex+1))}}",
      "currencyCode": "USD",
      "decimals": 0,
      "enableFilter": true,
      "enableSort": true,
      "horizontalAlignment": "LEFT",
      "id": "customColumn2",
      "index": 4,
      "isCellEditable": false,
      "isCellVisible": true,
      "isDerived": true,
      "isDisabled": false,
      "isDiscardVisible": true,
      "isEditable": false,
      "isSaveVisible": true,
      "isVisible": true,
      "label": "#",
      "labelColor": "#FFFFFF",
      "notation": "standard",
      "originalId": "customColumn2",
      "sticky": "",
      "textSize": "0.875rem",
      "thousandSeparator": true,
      "validation": {},
      "verticalAlignment": "CENTER",
      "width": 150
    },
    "fragmentsAggregate": {
      "alias": "fragmentsAggregate",
      "allowCellWrapping": false,
      "allowSameOptionsInNewRow": true,
      "cellBackground": "",
      "columnType": "number",
      "computedValue": "{{Table1.processedTableData.map((currentRow, currentIndex) => ( currentRow[\"fragmentsAggregate\"].count))}}",
      "currencyCode": "USD",
      "decimals": 0,
      "enableFilter": true,
      "enableSort": true,
      "fontStyle": "",
      "horizontalAlignment": "LEFT",
      "id": "fragmentsAggregate",
      "index": 2,
      "isCellEditable": false,
      "isCellVisible": true,
      "isDerived": false,
      "isDisabled": false,
      "isDiscardVisible": true,
      "isEditable": false,
      "isSaveVisible": true,
      "isVisible": true,
      "label": "Фрагменты",
      "notation": "standard",
      "originalId": "fragmentsAggregate",
      "sticky": "",
      "textColor": "",
      "textSize": "0.875rem",
      "thousandSeparator": true,
      "validation": {},
      "verticalAlignment": "CENTER",
      "width": 150
    },
    "title": {
      "alias": "title",
      "allowCellWrapping": false,
      "allowSameOptionsInNewRow": true,
      "cellBackground": "",
      "columnType": "text",
      "computedValue": "{{Table1.processedTableData.map((currentRow, currentIndex) => ( currentRow[\"title\"]))}}",
      "currencyCode": "USD",
      "decimals": 0,
      "enableFilter": true,
      "enableSort": true,
      "fontStyle": "",
      "horizontalAlignment": "LEFT",
      "id": "title",
      "index": 0,
      "isCellEditable": false,
      "isCellVisible": true,
      "isDerived": false,
      "isDisabled": false,
      "isDiscardVisible": true,
      "isEditable": false,
      "isSaveVisible": true,
      "isVisible": false,
      "label": "Название",
      "notation": "standard",
      "originalId": "title",
      "sticky": "",
      "textColor": "",
      "textSize": "0.875rem",
      "thousandSeparator": true,
      "validation": {},
      "verticalAlignment": "CENTER",
      "width": 150
    },
    "video_id": {
      "alias": "video_id",
      "allowCellWrapping": false,
      "allowSameOptionsInNewRow": true,
      "cellBackground": "",
      "columnType": "url",
      "computedValue": "{{Table1.processedTableData.map((currentRow, currentIndex) => ( 'https://www.youtube.com/watch?v=' + currentRow.video_id))}}",
      "currencyCode": "USD",
      "decimals": 0,
      "enableFilter": true,
      "enableSort": true,
      "fontStyle": "",
      "horizontalAlignment": "LEFT",
      "id": "video_id",
      "index": 1,
      "isCellEditable": false,
      "isCellVisible": true,
      "isDerived": false,
      "isDisabled": false,
      "isDiscardVisible": true,
      "isEditable": false,
      "isSaveVisible": true,
      "isVisible": true,
      "label": "URL",
      "notation": "standard",
      "originalId": "video_id",
      "sticky": "",
      "textColor": "",
      "textSize": "0.875rem",
      "thousandSeparator": true,
      "validation": {},
      "verticalAlignment": "CENTER",
      "width": 150
    }
  },
  "renderMode": "CANVAS",
  "responsiveBehavior": "fill",
  "rightColumn": 64,
  "searchKey": "",
  "tableData": "{{GetAllVideos.data.data.queryVideo}}",
  "tags": [
    "Suggested",
    "Display"
  ],
  "textSize": "0.875rem",
  "thumbnailSVG": "https://appcdn.appsmith.com/static/media/thumbnail.d0492f06681daa69baf92b07d3829dfc.svg",
  "topRow": 8,
  "totalRecordsCount": 0,
  "type": "TABLE_WIDGET_V2",
  "version": 2,
  "verticalAlignment": "CENTER",
  "widgetId": "agofb4umf8",
  "widgetName": "Table1"
}