{
  "gitSyncId": "667a90db9b4a5476aba8389f_8b2be11a-97d4-4ec0-a287-0f1518f77b85",
  "id": "Редактор плейлистов_FragmentsTableEventHandlers",
  "unpublishedCollection": {
    "name": "FragmentsTableEventHandlers",
    "pageId": "Редактор плейлистов",
    "pluginId": "js-plugin",
    "pluginType": "JS",
    "variables": []
  }
}